# Data Book






```r
# tibble allows to compress the output of a dataset when printing
library(tibble)

dataset <- read.csv("2007_welltest.csv", stringsAsFactors = FALSE)
as.tibble(dataset)   # small output
#>: # A tibble: 13,414 x 113
#>:    PRODUCTION_DAY            CODE OBJECT_START_DATE OBJECT_END_DATE
#>:             <chr>           <chr>             <chr>           <chr>
#>:  1     10/02/2007 MFEH-A002S02-TS        26/10/2006                
#>:  2     22/01/2007 MFEH-A002S02-TS        26/10/2006                
#>:  3     20/12/2007 MFEH-A002S02-TS        26/10/2006                
#>:  4     02/10/2007 MFEH-A002S02-TS        26/10/2006                
#>:  5     04/09/2007 MFEH-A002S02-TS        26/10/2006                
#>:  6     06/08/2007 MFEH-A002S02-TS        26/10/2006                
#>:  7     16/07/2007 MFEH-A002S02-TS        26/10/2006                
#>:  8     09/06/2007 MFEH-A002S02-TS        26/10/2006                
#>:  9     15/05/2007 MFEH-A002S02-TS        26/10/2006                
#>: 10     17/04/2007 MFEH-A002S02-TS        26/10/2006                
#>: # ... with 13,404 more rows, and 109 more variables: WELL_CLASS <chr>,
#>: #   WELL_TYPE <chr>, PROD_METHOD <chr>, PUMP_TYPE <chr>,
#>: #   WELL_METER_FREQ <chr>, INSTRUMENTATION_TYPE <int>, ALLOC_FLAG <chr>,
#>: #   COND_AS_OIL_FLAG <chr>, CHOKE_UOM <chr>, CGR_METHOD <chr>,
#>: #   CALC_SEQ_NO <int>, CAN_PROC_OIL <chr>, CAN_PROC_GAS <chr>,
#>: #   CAN_PROC_WAT <chr>, CAN_PROC_GASLIFT <chr>, CAN_PROC_CO2 <chr>,
#>: #   CAN_PROC_GASINJ <chr>, CAN_PROC_WATINJ <chr>, CAN_PROC_STEAMINJ <chr>,
#>: #   CAN_PROC_COND <chr>, CAN_PROC_DILUENT <chr>, CALC_DC_SEQ_NO <int>,
#>: #   ISPRODUCER <chr>, ISPRODUCEROROTHER <chr>, ISINJECTOR <chr>,
…
```r
library(tibble)
# what wells have NAs 
lmask <- is.na(dataset$WATERCUT_PCT)
imask <- which(lmask)

value <- dataset$WATERCUT_PCT[imask]
well  <- dataset$CODE[imask]

as.tibble(data.frame(well = well, watercut = value))
#>: # A tibble: 1,261 x 2
#>:               well watercut
#>:             <fctr>    <dbl>
#>:  1 MFEH-A002S02-TS       NA
#>:  2 MFEH-A002S02-TS       NA
#>:  3 MFEH-A002S02-TS       NA
#>:  4    NMPO-A002-SS       NA
#>:  5 NMPO-A003S07-TS       NA
#>:  6    NMPO-A004-SS       NA
#>:  7    NMPO-A004-SS       NA
#>:  8    NMPO-A004-SS       NA
#>:  9    NMPO-A004-SS       NA
#>: 10    NMPO-A004-SS       NA
#>: # ... with 1,251 more rows
```
…
